{
  "images" : [
    {
      "idiom" : "universal",
      "scale" : "1x",
      "filename" : "Home-screen_0000s_0005_4.png"
    },
    {
      "idiom" : "universal",
      "scale" : "2x",
      "filename" : "HOME_0000s_0005_4.png"
    },
    {
      "idiom" : "universal",
      "scale" : "3x",
      "filename" : "EPG-screen_0000s_0005_4.png"
    }
  ],
  "info" : {
    "version" : 1,
    "author" : "xcode"
  }
}