{
  "images" : [
    {
      "idiom" : "universal",
      "scale" : "1x",
      "filename" : "Home-screen_0001s_0000s_0005_Arrow-Icon.png"
    },
    {
      "idiom" : "universal",
      "scale" : "2x",
      "filename" : "HOME_0001s_0004_Arrow-Icon.png"
    },
    {
      "idiom" : "universal",
      "scale" : "3x",
      "filename" : "Home-screen_0002s_0001s_0004_Arrow-Icon.png"
    }
  ],
  "info" : {
    "version" : 1,
    "author" : "xcode"
  }
}