{
  "images" : [
    {
      "idiom" : "universal",
      "scale" : "1x",
      "filename" : "Home-screen_0001s_0001s_0000s_0009_21-copy-4.png"
    },
    {
      "idiom" : "universal",
      "scale" : "2x",
      "filename" : "HOME_0001s_0000s_0016_21.png"
    },
    {
      "idiom" : "universal",
      "scale" : "3x",
      "filename" : "Home-screen_0002s_0000s_0019_21-copy-4.png"
    }
  ],
  "info" : {
    "version" : 1,
    "author" : "xcode"
  }
}